sync_fifo.vcd
$date
	Sat Jul 04 23:14:53 2026
$end
$version
	Icarus Verilog
$end
$timescale
	1ps
$end
$scope module tb_sync_fifo $end
$var wire 32 ! read_data [31:0] $end
$var wire 1 " full $end
$var wire 1 # empty $end
$var reg 1 $ clk $end
$var reg 1 % read_en $end
$var reg 1 & rst $end
$var reg 32 ' write_data [31:0] $end
$var reg 1 ( write_en $end
$scope module uut $end
$var wire 1 $ clk $end
$var wire 1 % read_en $end
$var wire 1 & rst $end
$var wire 32 ) write_data [31:0] $end
$var wire 1 ( write_en $end
$var wire 1 " full $end
$var wire 1 # empty $end
$var parameter 32 * DATA_WIDTH $end
$var parameter 32 + DEPTH $end
$var reg 3 , count [2:0] $end
$var reg 32 - read_data [31:0] $end
$var reg 3 . read_ptr [2:0] $end
$var reg 3 / write_ptr [2:0] $end
$upscope $end
$upscope $end
$enddefinitions $end
$comment Show the parameter values. $end
$dumpall
b100 +
b100000 *
$end
#0
$dumpvars
bx /
bx .
bx -
bx ,
b0 )
0(
b0 '
0&
0%
0$
x#
x"
bx !
$end
#5000
1$
#10000
1&
0$
#15000
b0 !
b0 -
1#
0"
b0 ,
b0 .
b0 /
1$
#20000
0&
0$
#25000
1$
#30000
1(
b10101010101010100000000000000001 '
b10101010101010100000000000000001 )
0$
#35000
0#
b1 ,
b1 /
1$
#40000
b10111011101110110000000000000010 '
b10111011101110110000000000000010 )
0$
#45000
b10 ,
b10 /
1$
#50000
b11001100110011000000000000000011 '
b11001100110011000000000000000011 )
0$
#55000
b11 ,
b11 /
1$
#60000
b11011101110111010000000000000100 '
b11011101110111010000000000000100 )
0$
#65000
1"
b100 ,
b0 /
1$
#70000
0(
0$
#75000
1$
#80000
1%
0$
#85000
0"
b11 ,
b1 .
b10101010101010100000000000000001 !
b10101010101010100000000000000001 -
1$
#90000
0$
#95000
b10 ,
b10 .
b10111011101110110000000000000010 !
b10111011101110110000000000000010 -
1$
#100000
0%
0$
#105000
1$
#110000
1(
b11101110111011100000000000000101 '
b11101110111011100000000000000101 )
0$
#115000
b11 ,
b1 /
1$
#120000
b11111111111111110000000000000110 '
b11111111111111110000000000000110 )
0$
#125000
1"
b100 ,
b10 /
1$
#130000
0(
0$
#135000
1$
#140000
1%
0$
#145000
0"
b11 ,
b11 .
b11001100110011000000000000000011 !
b11001100110011000000000000000011 -
1$
#150000
0$
#155000
b10 ,
b0 .
b11011101110111010000000000000100 !
b11011101110111010000000000000100 -
1$
#160000
0$
#165000
b1 ,
b1 .
b11101110111011100000000000000101 !
b11101110111011100000000000000101 -
1$
#170000
0$
#175000
1#
b0 ,
b10 .
b11111111111111110000000000000110 !
b11111111111111110000000000000110 -
1$
#180000
0%
0$
#185000
1$
#190000
1%
0$
#195000
1$
#200000
0%
0$
