tile_controller_fifo.vcd
$date
	Sun Jul 05 00:05:24 2026
$end
$version
	Icarus Verilog
$end
$timescale
	1ps
$end
$scope module tb_tile_controller_fifo $end
$var wire 1 ! wgt_load $end
$var wire 32 " weights [31:0] $end
$var wire 3 # state [2:0] $end
$var wire 1 $ fifo_read_en $end
$var wire 32 % fifo_read_data [31:0] $end
$var wire 1 & fifo_full $end
$var wire 1 ' fifo_empty $end
$var wire 1 ( done $end
$var wire 1 ) busy $end
$var wire 32 * activations [31:0] $end
$var wire 1 + act_load $end
$var reg 1 , clk $end
$var reg 32 - fifo_write_data [31:0] $end
$var reg 1 . fifo_write_en $end
$var reg 1 / rst $end
$var reg 1 0 start $end
$scope module input_fifo $end
$var wire 1 , clk $end
$var wire 1 / rst $end
$var wire 32 1 write_data [31:0] $end
$var wire 1 . write_en $end
$var wire 1 $ read_en $end
$var wire 1 & full $end
$var wire 1 ' empty $end
$var parameter 32 2 DATA_WIDTH $end
$var parameter 32 3 DEPTH $end
$var reg 3 4 count [2:0] $end
$var reg 32 5 read_data [31:0] $end
$var reg 3 6 read_ptr [2:0] $end
$var reg 3 7 write_ptr [2:0] $end
$upscope $end
$scope module uut $end
$var wire 1 , clk $end
$var wire 1 ' fifo_empty $end
$var wire 32 8 fifo_read_data [31:0] $end
$var wire 1 / rst $end
$var wire 1 0 start $end
$var parameter 3 9 DONE $end
$var parameter 3 : IDLE $end
$var parameter 3 ; LATCH_ACT $end
$var parameter 3 < LATCH_WGT $end
$var parameter 3 = LOAD_TILE $end
$var parameter 3 > READ_ACT $end
$var parameter 3 ? READ_WGT $end
$var reg 1 + act_load $end
$var reg 32 @ activations [31:0] $end
$var reg 1 ) busy $end
$var reg 1 ( done $end
$var reg 1 $ fifo_read_en $end
$var reg 3 A state [2:0] $end
$var reg 32 B weights [31:0] $end
$var reg 1 ! wgt_load $end
$upscope $end
$upscope $end
$enddefinitions $end
$comment Show the parameter values. $end
$dumpall
b11 ?
b1 >
b101 =
b100 <
b10 ;
b0 :
b110 9
b100 3
b100000 2
$end
#0
$dumpvars
bx B
bx A
bx @
bx 8
bx 7
bx 6
bx 5
bx 4
b0 1
00
0/
0.
b0 -
0,
x+
bx *
x)
x(
x'
x&
bx %
x$
bx #
bx "
x!
$end
#5000
0)
b0 #
b0 A
0(
0!
0+
0$
1,
#10000
1/
0,
#15000
b0 "
b0 B
b0 *
b0 @
b0 %
b0 5
b0 8
1'
0&
b0 4
b0 6
b0 7
1,
#20000
0/
0,
#25000
1,
#30000
1.
b100000000110000001000000001 -
b100000000110000001000000001 1
0,
#35000
0'
b1 4
b1 7
1,
#40000
b1000000001110000011000000101 -
b1000000001110000011000000101 1
0,
#45000
b10 4
b10 7
1,
#50000
0.
0,
#55000
1,
#60000
10
0,
#65000
b1 #
b1 A
1$
1)
1,
#70000
00
0,
#75000
b10 #
b10 A
0$
b1 4
b1 6
b100000000110000001000000001 %
b100000000110000001000000001 5
b100000000110000001000000001 8
1,
#80000
0,
#85000
b11 #
b11 A
1$
b100000000110000001000000001 *
b100000000110000001000000001 @
1,
#90000
0,
#95000
b100 #
b100 A
0$
1'
b0 4
b10 6
b1000000001110000011000000101 %
b1000000001110000011000000101 5
b1000000001110000011000000101 8
1,
#100000
0,
#105000
b101 #
b101 A
b1000000001110000011000000101 "
b1000000001110000011000000101 B
1,
#110000
0,
#115000
b110 #
b110 A
1!
1+
1,
#120000
0,
#125000
b0 #
b0 A
1(
0)
0!
0+
1,
#130000
0,
#135000
0(
1,
